{
  "applicationKey": "",
  "userToken": "",
  "boardName": [
    "Releases"
  ],
  "listName": [
    "Released - March 2017"
  ],
  "template": "default.template",
  "exportLinks": true,
  "exportPath": "",
  "strings": {
    "header": "Release Notes for ",
    "product": "Project",
    "version": "Version",
    "version_number": "1.0.0",
    "generated": "Generated on",
    "subheader": "Items included in this release"
  }
}